WAV noise sawtooth sawtooth sawtooth
BPM 70

SEQ 01 02 03 04 05 06 07 08 09 10 11 12 13 14
SEQ 15 16 17 18 19 20 21 22 23 24 25 26 27 28
SEQ 29 30 31 32 33

PAT 01
--- - -- C-2 - -- --- - -- --- - --
--- - -- C-3 - -- --- - -- --- - --
--- - -- C-2 - -- --- - -- --- - --
--- - -- C-3 - -- --- - -- --- - --

PAT 02
--- - -- C-2 - -- C-2 - -- --- - --
--- - -- C-3 - -- C-3 - -- --- - --
--- - -- C-2 - -- C-2 - -- --- - --
--- - -- C-3 - -- C-3 - -- --- - --

PAT 03
--- - -- C-2 - -- C-2 - -- C-2 - --
X-- - -- C-3 - -- C-3 - -- C-3 - --
--- - -- C-2 - -- C-2 - -- C-2 - --
X-- - -- C-3 - -- C-3 - -- C-3 - --

PAT 04
--- - -- C-2 - -- C-2 - -- C-4 - --
X-- - -- C-3 - -- C-3 - -- C-5 - --
X-- - -- C-2 - -- C-2 - -- C-4 - --
X-- - -- C-3 - -- C-3 - -- C-5 - --

PAT 05
--- - -- C-4 - -- --- - -- C-2 - --
--- - -- B-3 - -- --- - -- C-3 - --
--- - -- C-4 - -- --- - -- --- - --
X-- - -- C-4 - -- --- - -- C-3 - --

PAT 06
--- - -- E-4 - -- --- - -- E-2 - --
--- - -- Eb4 - -- --- - -- E-3 - --
--- - -- E-4 - -- --- - -- --- - --
X-- - -- E-4 - -- --- - -- E-3 - --

PAT 07
--- - -- G-4 - -- --- - -- G-2 - --
--- - -- F#4 - -- --- - -- G-3 - --
--- - -- G-4 - -- --- - -- --- - --
X-- - -- G-4 - -- --- - -- G-3 - --

PAT 08
--- - -- C-5 - -- --- - -- C-3 - --
--- - -- B-4 - -- --- - -- C-2 - --
--- - -- C-5 - -- --- - -- --- - --
X-- - -- C-5 - -- --- - -- C-2 - --

PAT 09
--- - -- B-4 - -- --- - -- G-3 - --
--- - -- C-5 - -- --- - -- G-2 - --
--- - -- B-4 - -- --- - -- G-3 - --
X-- - -- C-5 - -- --- - -- G-2 - --

PAT 10
--- - -- --- - -- --- - -- G-3 - --
--- - -- G-5 - -- --- - -- G-2 - --
--- - -- E-5 - -- --- - -- --- - --
X-- - -- C-5 - -- --- - -- G-3 - --

PAT 11
--- - -- B-4 - -- --- - -- G-3 - --
--- - -- C-5 - -- --- - -- G-2 - --
--- - -- B-4 - -- --- - -- --- - --
X-- - -- B-4 - -- --- - -- G-3 - --

PAT 12
X-- - -- --- - -- --- - -- C-1 - --
--- - -- C-7 - -- B-6 - -- C-0 - --
X-- - -- --- - -- --- - -- C-1 - --
X-- - -- C-6 - -- B-5 - -- C-0 - --

PAT 13
X-- - -- F-4 - -- --- - -- F-2 - --
--- - -- F-4 - -- --- - -- F-1 - --

PAT 14
X-- - -- E-4 - -- --- - -- E-2 - --
--- - -- E-4 - -- --- - -- E-1 - --

PAT 15
X-- - -- F-4 - -- --- - -- F-2 - --
--- - -- F-4 - -- --- - -- F-1 - --

PAT 16
X-- - -- A-4 - -- --- - -- A-2 - --
--- - -- A-4 - -- --- - -- A-1 - --

PAT 17
X-- - -- G#4 - -- --- - -- G#2 - --
--- - -- G#4 - -- --- - -- G#1 - --

PAT 18
X-- - -- A-4 - -- --- - -- A-2 - --
--- - -- A-4 - -- --- - -- A-1 - --

PAT 19
X-- - -- C-5 - -- --- - -- C-3 - --
--- - -- C-5 - -- --- - -- C-2 - --

PAT 20
X-- - -- B-4 - -- --- - -- B-2 - --
--- - -- B-4 - -- --- - -- B-1 - --

PAT 21
X-- - -- C-5 - -- --- - -- C-3 - --
--- - -- C-5 - -- --- - -- C-2 - --

PAT 22
X-- - -- F-5 - -- --- - -- F-3 - --
--- - -- F-5 - -- --- - -- F-2 - --

PAT 23
X-- - -- G-5 - -- --- - -- G-3 - --
--- - -- G-5 - -- --- - -- G-2 - --

PAT 24
X-- - -- A-5 - -- --- - -- A-3 - --
--- - -- A-5 - -- --- - -- A-2 - --

PAT 25
X-- - -- E-5 - -- --- - -- E-2 - --
X-- - -- E-5 - -- --- - -- E-3 - --
--- - -- F-5 - -- --- - -- F-2 - --
X-- - -- F-5 - -- --- - -- F-3 - --
X-- - -- E-5 - -- --- - -- E-2 - --
--- - -- E-5 - -- --- - -- E-3 - --

PAT 26
X-- - -- D-5 - -- --- - -- D-2 - --
X-- - -- D-5 - -- --- - -- D-3 - --
--- - -- E-5 - -- --- - -- E-2 - --
X-- - -- E-5 - -- --- - -- E-3 - --
X-- - -- D-5 - -- --- - -- D-2 - --
--- - -- D-5 - -- --- - -- D-3 - --

PAT 27
X-- - -- C-5 - -- --- - -- C-2 - --
X-- - -- C-5 - -- --- - -- C-3 - --
--- - -- D-5 - -- --- - -- D-2 - --
X-- - -- D-5 - -- --- - -- D-3 - --
X-- - -- C-5 - -- --- - -- C-2 - --
--- - -- C-5 - -- --- - -- C-3 - --

PAT 28
X-- - -- B-4 - -- --- - -- B-1 - --
--- - -- B-4 - -- --- - -- B-2 - --
X-- - -- C-5 - -- --- - -- C-2 - --
--- - -- C-5 - -- --- - -- C-3 - --
X-- - -- B-4 - -- --- - -- B-1 - --
--- - -- B-4 - -- --- - -- B-2 - --

PAT 29
X-- - -- C-6 - -- --- - -- C-2 - --
--- - -- C-5 - -- --- - -- C-3 - --
X-- - -- C-4 - -- --- - -- --- - --
--- - -- C-3 - -- C-4 - -- B-2 - --
X-- - -- C-2 - -- D-5 - -- C-3 - --
--- - -- C-1 - -- C-4 - -- B-2 - --

PAT 30
X-- - -- C-6 - -- --- - -- C-2 - --
--- - -- C-5 - -- --- - -- C-3 - --
X-- - -- C-4 - -- --- - -- --- - --
--- - -- C-3 - -- C-4 - -- B-2 - --
X-- - -- C-2 - -- D-5 - -- C-3 - --
--- - -- C-1 - -- C-4 - -- B-2 - --

PAT 31
X-- - -- C-6 - -- --- - -- C-2 - --
--- - -- C-5 - -- --- - -- C-3 - --
X-- - -- C-4 - -- --- - -- --- - --
--- - -- C-3 - -- C-4 - -- B-2 - --
X-- - -- C-2 - -- D-5 - -- C-3 - --
--- - -- C-1 - -- C-4 - -- B-2 - --

PAT 32
X-- - -- C-6 - -- --- - -- C-2 - --
--- - -- C-5 - -- --- - -- C-3 - --
X-- - -- C-4 - -- --- - -- --- - --
--- - -- C-3 - -- C-4 - -- B-2 - --
X-- - -- C-2 - -- D-5 - -- C-3 - --
--- - -- C-1 - -- C-4 - -- B-2 - --

PAT 33
X-- - -- --- - -- --- - -- C-1 - --
--- - -- D-6 - -- C-5 - -- C-0 - --
X-- - -- --- - -- --- - -- C-1 - --
X-- - -- D-7 - -- C-6 - -- C-0 - --
